const nomodify byte* SCREEN = (byte*) 1024
const byte* STR = "camelot!"
void main()
word~ main::$0 zp[2]:4 2.0
word strlen(byte* strlen::str)
word strlen::len
word strlen::len#1 len zp[2]:4 101.0
word strlen::len#2 len zp[2]:4 51.0
word strlen::return
word strlen::return#2 return zp[2]:4 4.0
byte* strlen::str
byte* strlen::str#0 str zp[2]:2 202.0
byte* strlen::str#2 str zp[2]:2 101.0

zp[2]:2 [ strlen::str#2 strlen::str#0 ]
zp[2]:4 [ strlen::len#2 strlen::len#1 strlen::return#2 main::$0 ]
