void main()
byte~ main::$3 reg byte a 22.0
const nomodify byte* main::SCREEN = (byte*) 1024
const byte* main::header[]  = "  <  <= == >= >"
byte main::i
byte main::i#1 reg byte x 22.0
byte main::i#2 reg byte x 18.333333333333332
byte main::i1
byte main::i1#1 reg byte x 22.0
byte main::i1#10 reg byte x 6.6
byte* main::sc
byte* main::sc#1 sc zp[2]:2 16.5
byte* main::sc#2 sc zp[2]:2 16.5
byte* main::screen
byte* main::screen#1 screen zp[2]:4 6.285714285714286
byte* main::screen#2 screen zp[2]:4 11.0

zp[2]:2 [ main::sc#2 main::sc#1 ]
reg byte x [ main::i#2 main::i#1 ]
reg byte x [ main::i1#10 main::i1#1 ]
zp[2]:4 [ main::screen#2 main::screen#1 ]
reg byte a [ main::$3 ]
