void fn1()
const nomodify byte* fn1::BORDER_COLOR = (byte*) 53280
void fn2()
const nomodify byte* fn2::BG_COLOR = (byte*) 53281
const void()** fns[2]  = { &fn1, &fn2 }
void main()
byte~ main::$0 reg byte a 22.0
byte~ main::$2 reg byte a 22.0
void()* main::f
void()* main::f#0 f zp[2]:3 11.0
byte main::i
byte main::i#1 i zp[1]:2 6.6000000000000005
byte main::i#2 i zp[1]:2 22.0

zp[1]:2 [ main::i#2 main::i#1 ]
reg byte a [ main::$0 ]
reg byte a [ main::$2 ]
zp[2]:3 [ main::f#0 ]
