byte fn1()
const nomodify byte* fn1::BORDER_COLOR = (byte*) 53280
byte fn1::return
byte fn2()
const nomodify byte* fn2::BG_COLOR = (byte*) 53281
byte fn2::return
void main()
byte~ main::$0 reg byte a 22.0
const nomodify byte* main::SCREEN = (byte*) 1024
byte()* main::f
byte()* main::f#3 f zp[2]:2
byte main::i
byte main::i#1 reg byte x 5.5
byte main::i#2 reg byte x 22.0

reg byte x [ main::i#2 main::i#1 ]
zp[2]:2 [ main::f#3 ]
reg byte a [ main::$0 ]
