const byte* ff[]  = kickasm {{ jmp (main.f)
 }}
void fn1()
const nomodify byte* fn1::BORDER_COLOR = (byte*) 53280
void fn2()
const nomodify byte* fn2::BG_COLOR = (byte*) 53281
void main()
byte~ main::$0 reg byte a 22.0
volatile void()* main::f loadstore zp[2]:2 12.0
byte main::i
byte main::i#1 reg byte x 5.5
byte main::i#2 reg byte x 22.0

reg byte x [ main::i#2 main::i#1 ]
zp[2]:2 [ main::f ]
reg byte a [ main::$0 ]
