const word* entities[$19]  = { fill( $19, 0) }
void main()
word~ main::$1 zp[2]:4 22.0
word*~ main::$2 zp[2]:4 22.0
word main::i
word main::i#1 i zp[2]:2 22.0
word main::i#2 i zp[2]:2 8.8

zp[2]:2 [ main::i#2 main::i#1 ]
zp[2]:4 [ main::$1 main::$2 ]
