void main()
byte main::sum1_a
const byte main::sum1_a#0 sum1_a = 2
byte main::sum1_b
const byte main::sum1_b#0 sum1_b = 1
byte main::sum1_return
const byte main::sum1_return#0 sum1_return = main::sum1_a#0+main::sum1_b#0
byte main::sum2_a
const byte main::sum2_a#0 sum2_a = $a
byte main::sum2_b
const byte main::sum2_b#0 sum2_b = 3
byte main::sum2_return
const byte main::sum2_return#0 sum2_return = main::sum2_a#0+main::sum2_b#0
byte main::sum3_a
const byte main::sum3_a#0 sum3_a = 4
byte main::sum3_b
const byte main::sum3_b#0 sum3_b = 8
byte main::sum3_return
const byte main::sum3_return#0 sum3_return = main::sum3_a#0+main::sum3_b#0
const byte* screen = (byte*) 1024

