void main()
bool main::toUpper1_bo
byte main::toUpper1_ch
const byte main::toUpper1_ch#0 toUpper1_ch = 'c'
byte main::toUpper1_res
byte main::toUpper1_return
const byte main::toUpper1_return#0 toUpper1_return = main::toUpper1_ch#0+$40
bool main::toUpper2_bo
byte main::toUpper2_ch
const byte main::toUpper2_ch#0 toUpper2_ch = 'm'
byte main::toUpper2_res
byte main::toUpper2_return
const byte* screen = (byte*) 1024

