const byte* SCREEN = (byte*) 1024
const byte* TXT[]  = { 3, 1, $d, 5, $c, $f, $14, $20 }
void main()
byte main::i
byte main::i#1 reg byte x 16.5
byte main::i#2 reg byte x 5.5
byte main::j
byte main::j#1 reg byte y 11.0
byte main::j#3 reg byte y 16.5
byte main::j#4 reg byte y 7.333333333333333

reg byte y [ main::j#3 main::j#4 main::j#1 ]
reg byte x [ main::i#2 main::i#1 ]
