const byte* SCREEN = (byte*) 1024
void main()
byte main::i
byte main::i#1 reg byte y 16.5
byte main::i#2 reg byte y 11.0
void nest()
byte nest::j
byte nest::j#1 reg byte x 15001.5
byte nest::j#2 reg byte x 15001.5

reg byte y [ main::i#2 main::i#1 ]
reg byte x [ nest::j#2 nest::j#1 ]
