const byte* HEAP_TOP = (byte*) 40960
const byte RADIX::BINARY = 2
const byte RADIX::DECIMAL = $a
const byte RADIX::HEXADECIMAL = $10
const byte RADIX::OCTAL = 8
const byte SIZEOF_WORD = 2
word* WORDS
const word* WORDS#0 WORDS = (word*)malloc::return#0
void __start()
byte* heap_head
void main()
byte main::i
byte main::i#1 reg byte x 151.5
byte main::i#2 reg byte x 101.0
word* main::w
word* main::w#1 w zp[2]:2 67.33333333333333
word* main::w#2 w zp[2]:2 151.5
void* malloc(word malloc::size)
byte* malloc::mem
const byte* malloc::mem#0 mem = HEAP_TOP-malloc::size#0
void* malloc::return
const void* malloc::return#0 return = (void*)malloc::mem#0
word malloc::size
const word malloc::size#0 size = $200

reg byte x [ main::i#2 main::i#1 ]
zp[2]:2 [ main::w#2 main::w#1 ]
