const byte* SCREEN = (byte*) 1024
const byte* bar[$a]  = { 9, 1, 2, 3, 4, 5, 6, 7, 8, 9 }
byte foo(byte foo::x)
byte foo::return
byte foo::return#0 reg byte a 4.0
byte foo::return#1 reg byte a 4.333333333333333
byte foo::x
const byte foo::x#0 x = 1
void main()
byte~ main::$0 reg byte a 4.0
word main::a
word main::a#1 a zp[2]:2 2.0

reg byte a [ foo::return#0 ]
reg byte a [ main::$0 ]
zp[2]:2 [ main::a#1 ]
reg byte a [ foo::return#1 ]
