void __start()
void main()
volatile byte* screen loadstore zp[2]:4 2.666666666666667
const byte* screen1 = (byte*) 1024
const byte* screen2 = (byte*)$400+$28
void setscreen(byte** setscreen::screen , byte* setscreen::val)
byte** setscreen::screen
byte* setscreen::val
byte* setscreen::val#2 val zp[2]:2 101.0

zp[2]:2 [ setscreen::val#2 ]
zp[2]:4 [ screen ]
