const nomodify byte* COLORRAM = (byte*) 55296
const nomodify byte* DEFAULT_SCREEN = (byte*) 1024
const nomodify byte LIGHT_BLUE = $e
const byte RADIX::BINARY = 2
const byte RADIX::DECIMAL = $a
const byte RADIX::HEXADECIMAL = $10
const byte RADIX::OCTAL = 8
void __start()
void clrscr()
byte clrscr::c
byte clrscr::c#1 reg byte y 20002.0
byte clrscr::c#2 reg byte y 12501.25
byte clrscr::l
byte clrscr::l#1 reg byte x 2002.0
byte clrscr::l#2 reg byte x 333.6666666666667
byte* clrscr::line_cols
byte* clrscr::line_cols#1 line_cols zp[2]:4 1001.0
byte* clrscr::line_cols#5 line_cols zp[2]:4 1500.375
byte* clrscr::line_text
byte* clrscr::line_text#1 line_text zp[2]:2 667.3333333333334
byte* clrscr::line_text#5 line_text zp[2]:2 1714.7142857142858
void conio_c64_init()
const nomodify byte* conio_c64_init::BASIC_CURSOR_LINE = (byte*) 214
byte conio_c64_init::line
byte conio_c64_init::line#0 reg byte x 11.0
byte conio_c64_init::line#2 reg byte x 22.0
byte conio_cursor_x loadstore zp[1]:8 5179.6551724137935
byte conio_cursor_y loadstore zp[1]:9 71115.75555555556
byte* conio_line_color loadstore zp[2]:12 51400.20930232557
byte* conio_line_text loadstore zp[2]:10 50232.02272727273
void cputc(byte cputc::c)
byte cputc::c
byte cputc::c#0 reg byte a 10501.5
void cputln()
void cputs(to_nomodify byte* cputs::s)
byte cputs::c
byte cputs::c#1 reg byte a 1001.0
to_nomodify byte* cputs::s
to_nomodify byte* cputs::s#0 s zp[2]:2 500.5
to_nomodify byte* cputs::s#3 s zp[2]:2 1552.0
to_nomodify byte* cputs::s#4 s zp[2]:2 101.0
void cscroll()
void gotoxy(byte gotoxy::x , byte gotoxy::y)
byte*~ gotoxy::$5 zp[2]:18 202.0
byte*~ gotoxy::$6 zp[2]:14 202.0
word~ gotoxy::$7 zp[2]:14 151.5
word~ gotoxy::$8 zp[2]:16 202.0
word~ gotoxy::$9 zp[2]:14 202.0
word gotoxy::line_offset
word gotoxy::line_offset#0 line_offset zp[2]:14 101.0
byte gotoxy::x
const byte gotoxy::x#2 x = 0
byte gotoxy::y
byte gotoxy::y#2 reg byte x 71.0
byte gotoxy::y#4 reg byte x 67.33333333333333
void main()
const byte* main::s[8]  = "Lone 1
"
const byte* main::s1[8]  = "Lone 2
"
void* memcpy(void* memcpy::destination , void* memcpy::source , word memcpy::num)
void* memcpy::destination
void* memcpy::destination#2 destination zp[2]:6
byte* memcpy::dst
byte* memcpy::dst#1 dst zp[2]:6 1.000000001E9
byte* memcpy::dst#2 dst zp[2]:6 1.0033333346666667E9
byte* memcpy::dst#4 dst zp[2]:6 2.0000002E7
word memcpy::num
void* memcpy::return
void* memcpy::source
void* memcpy::source#2 source zp[2]:4
byte* memcpy::src
byte* memcpy::src#1 src zp[2]:4 2.000000002E9
byte* memcpy::src#2 src zp[2]:4 1.00250000125E9
byte* memcpy::src#4 src zp[2]:4 1.0000001E7
byte* memcpy::src_end
byte* memcpy::src_end#0 src_end zp[2]:20 1.2625000025E8
void* memset(void* memset::str , byte memset::c , word memset::num)
byte memset::c
byte memset::c#4 reg byte x 1.42857143E8
byte* memset::dst
byte* memset::dst#1 dst zp[2]:6 2.000000002E9
byte* memset::dst#2 dst zp[2]:6 1.3366666683333335E9
byte* memset::dst#4 dst zp[2]:6 2.0000002E7
byte* memset::end
byte* memset::end#0 end zp[2]:20 1.683333336666667E8
word memset::num
void* memset::return
void* memset::str
void* memset::str#3 str zp[2]:6

reg byte x [ conio_c64_init::line#2 conio_c64_init::line#0 ]
reg byte x [ gotoxy::y#4 gotoxy::y#2 ]
reg byte x [ clrscr::l#2 clrscr::l#1 ]
reg byte y [ clrscr::c#2 clrscr::c#1 ]
zp[2]:2 [ cputs::s#3 cputs::s#4 cputs::s#0 clrscr::line_text#5 clrscr::line_text#1 ]
zp[2]:4 [ memcpy::source#2 memcpy::src#2 memcpy::src#4 memcpy::src#1 clrscr::line_cols#5 clrscr::line_cols#1 ]
zp[2]:6 [ memset::str#3 memset::dst#2 memset::dst#4 memset::dst#1 memcpy::destination#2 memcpy::dst#2 memcpy::dst#4 memcpy::dst#1 ]
reg byte x [ memset::c#4 ]
zp[1]:8 [ conio_cursor_x ]
zp[1]:9 [ conio_cursor_y ]
zp[2]:10 [ conio_line_text ]
zp[2]:12 [ conio_line_color ]
zp[2]:14 [ gotoxy::$7 gotoxy::$9 gotoxy::line_offset#0 gotoxy::$6 ]
zp[2]:16 [ gotoxy::$8 ]
zp[2]:18 [ gotoxy::$5 ]
reg byte a [ cputs::c#1 ]
reg byte a [ cputc::c#0 ]
zp[2]:20 [ memset::end#0 memcpy::src_end#0 ]
