void main()
byte~ main::$0 reg byte a 22.0
byte~ main::$3 reg byte a 22.0
byte main::i
byte main::i#1 reg byte x 16.5
byte main::i#2 reg byte x 5.5
word main::w
word main::w#0 w zp[2]:2 5.5
word main::w#2 w zp[2]:2 11.0
const word* screen = (word*) 1024

reg byte x [ main::i#2 main::i#1 ]
zp[2]:2 [ main::w#2 main::w#0 ]
reg byte a [ main::$0 ]
reg byte a [ main::$3 ]
