const nomodify byte* SCREEN = (byte*) 1024
byte idx
void main()
void print(byte print::c , byte print::fmt_prefix , byte print::fmt_postfix)
byte print::c
const byte print::c#0 c = 'c'
struct format print::fmt
byte print::fmt_postfix
const byte print::fmt_postfix#0 fmt_postfix = '-'
byte print::fmt_prefix
const byte print::fmt_prefix#0 fmt_prefix = '-'

