const nomodify byte* SCREEN = (byte*) 1024
const word STACK_BASE = $103
void __start()
byte idx loadstore zp[1]:4 1571.8095238095236
__stackcall void main()
const byte* main::str[6]  = "hello"
const byte* main::str1[6]  = "world"
__stackcall void print(byte* print::str , byte print::spacing)
const byte print::OFFSET_STACK_SPACING = 0
const byte print::OFFSET_STACK_STR = 1
byte print::c
byte print::c#1 reg byte x 20002.0
byte print::c#2 reg byte x 7500.75
byte print::spacing
byte print::spacing#0 spacing zp[1]:5 918.3636363636363
byte* print::str
byte* print::str#0 str zp[2]:2 101.0
byte* print::str#1 str zp[2]:2 1833.6666666666665
byte* print::str#2 str zp[2]:2 3276.25

zp[2]:2 [ print::str#2 print::str#0 print::str#1 ]
reg byte x [ print::c#2 print::c#1 ]
zp[1]:4 [ idx ]
zp[1]:5 [ print::spacing#0 ]
