const nomodify word* SCREEN = (word*) 1024
const word STACK_BASE = $103
void main()
word~ main::$0 zp[2]:4 4.0
__stackcall word plus(word plus::a , word plus::b)
const byte plus::OFFSET_STACK_A = 2
const byte plus::OFFSET_STACK_B = 0
const byte plus::OFFSET_STACK_RETURN = 2
word plus::a
word plus::a#0 a zp[2]:4 11.0
word plus::b
word plus::b#0 b zp[2]:2 22.0
word plus::return
word plus::return#0 return zp[2]:4 22.0

zp[2]:2 [ plus::b#0 ]
zp[2]:4 [ main::$0 plus::a#0 plus::return#0 ]
