void main()
byte main::i
byte main::i#1 reg byte y 16.5
byte main::i#3 reg byte y 9.428571428571429
byte main::idx
byte main::idx#1 reg byte x 7.333333333333333
byte main::idx#2 reg byte x 5.5
byte main::j
byte main::j#1 reg byte a 22.0
byte main::j#2 reg byte a 33.0
byte main::j#4 reg byte a 22.0
const nomodify byte* main::screen = (byte*) 1024

reg byte y [ main::i#3 main::i#1 ]
reg byte x [ main::idx#2 main::idx#1 ]
reg byte a [ main::j#2 main::j#4 main::j#1 ]
