
CONTROL FLOW GRAPH SSA

void main()
main: scope:[main]  from __start
  main::w1#0 = $4d2
  main::i#0 = 0
  to:main::@1
main::@1: scope:[main]  from main main::@1
  main::i#2 = phi( main/main::i#0, main::@1/main::i#1 )
  main::w1#2 = phi( main/main::w1#0, main::@1/main::w1#1 )
  main::$0 = main::w1#2 - $29
  main::w1#1 = main::$0
  main::$2 = main::i#2 * SIZEOF_SIGNED_WORD
  main::screen[main::$2] = main::w1#1
  main::i#1 = main::i#2 + rangenext(0,$a)
  main::$1 = main::i#1 != rangelast(0,$a)
  if(main::$1) goto main::@1
  to:main::@return
main::@return: scope:[main]  from main::@1
  return 
  to:@return

void __start()
__start: scope:[__start]  from
  call main 
  to:__start::@1
__start::@1: scope:[__start]  from __start
  to:__start::@return
__start::@return: scope:[__start]  from __start::@1
  return 
  to:@return

SYMBOL TABLE SSA
const byte SIZEOF_SIGNED_WORD = 2
void __start()
void main()
number~ main::$0
bool~ main::$1
byte~ main::$2
byte main::i
byte main::i#0
byte main::i#1
byte main::i#2
const signed word* main::screen = (signed word*)$400
signed word main::w1
signed word main::w1#0
signed word main::w1#1
signed word main::w1#2

Adding number conversion cast (snumber) $29 in main::$0 = main::w1#2 - $29
Adding number conversion cast (snumber) main::$0 in main::$0 = main::w1#2 - (snumber)$29
Successful SSA optimization PassNAddNumberTypeConversions
Simplifying constant pointer cast (signed word*) 1024
Simplifying constant integer cast $29
Successful SSA optimization PassNCastSimplification
Finalized signed number type $29
Successful SSA optimization PassNFinalizeNumberTypeConversions
Inferred type updated to signed word in main::$0 = main::w1#2 - $29
Alias main::w1#1 = main::$0 
Successful SSA optimization Pass2AliasElimination
Simple Condition main::$1 [8] if(main::i#1!=rangelast(0,$a)) goto main::@1
Successful SSA optimization Pass2ConditionalJumpSimplification
Constant main::w1#0 = $4d2
Constant main::i#0 = 0
Successful SSA optimization Pass2ConstantIdentification
Resolved ranged next value [6] main::i#1 = ++ main::i#2 to ++
Resolved ranged comparison value [8] if(main::i#1!=rangelast(0,$a)) goto main::@1 to $b
Removing unused procedure __start
Removing unused procedure block __start
Removing unused procedure block __start::@1
Removing unused procedure block __start::@return
Successful SSA optimization PassNEliminateEmptyStart
Adding number conversion cast (unumber) $b in [5] if(main::i#1!=$b) goto main::@1
Successful SSA optimization PassNAddNumberTypeConversions
Simplifying constant integer cast $b
Successful SSA optimization PassNCastSimplification
Finalized unsigned number type $b
Successful SSA optimization PassNFinalizeNumberTypeConversions
Rewriting multiplication to use shift [2] main::$2 = main::i#2 * SIZEOF_SIGNED_WORD
Successful SSA optimization Pass2MultiplyToShiftRewriting
Inlining constant with var siblings main::w1#0
Inlining constant with var siblings main::i#0
Constant inlined main::i#0 = 0
Constant inlined main::w1#0 = $4d2
Successful SSA optimization Pass2ConstantInlining
Eliminating unused constant SIZEOF_SIGNED_WORD
Successful SSA optimization PassNEliminateUnusedVars
Added new block during phi lifting main::@2(between main::@1 and main::@1)
Adding NOP phi() at start of main
CALL GRAPH

Created 2 initial phi equivalence classes
Coalesced [8] main::w1#3 = main::w1#1
Coalesced [9] main::i#3 = main::i#1
Coalesced down to 2 phi equivalence classes
Culled Empty Block label main::@2
Adding NOP phi() at start of main

FINAL CONTROL FLOW GRAPH

void main()
main: scope:[main]  from
  [0] phi()
  to:main::@1
main::@1: scope:[main]  from main main::@1
  [1] main::i#2 = phi( main/0, main::@1/main::i#1 )
  [1] main::w1#2 = phi( main/$4d2, main::@1/main::w1#1 )
  [2] main::w1#1 = main::w1#2 - $29
  [3] main::$2 = main::i#2 << 1
  [4] main::screen[main::$2] = main::w1#1
  [5] main::i#1 = ++ main::i#2
  [6] if(main::i#1!=$b) goto main::@1
  to:main::@return
main::@return: scope:[main]  from main::@1
  [7] return 
  to:@return


VARIABLE REGISTER WEIGHTS
void main()
byte~ main::$2 22.0
byte main::i
byte main::i#1 16.5
byte main::i#2 8.25
signed word main::w1
signed word main::w1#1 6.6000000000000005
signed word main::w1#2 22.0

Initial phi equivalence classes
[ main::w1#2 main::w1#1 ]
[ main::i#2 main::i#1 ]
Added variable main::$2 to live range equivalence class [ main::$2 ]
Complete equivalence classes
[ main::w1#2 main::w1#1 ]
[ main::i#2 main::i#1 ]
[ main::$2 ]
Allocated zp[2]:2 [ main::w1#2 main::w1#1 ]
Allocated zp[1]:4 [ main::i#2 main::i#1 ]
Allocated zp[1]:5 [ main::$2 ]
REGISTER UPLIFT POTENTIAL REGISTERS
Statement [2] main::w1#1 = main::w1#2 - $29 [ main::i#2 main::w1#1 ] (  [ main::i#2 main::w1#1 ] { }  ) always clobbers reg byte a 
Removing always clobbered register reg byte a as potential for zp[1]:4 [ main::i#2 main::i#1 ]
Statement [3] main::$2 = main::i#2 << 1 [ main::i#2 main::w1#1 main::$2 ] (  [ main::i#2 main::w1#1 main::$2 ] { }  ) always clobbers reg byte a 
Statement [4] main::screen[main::$2] = main::w1#1 [ main::i#2 main::w1#1 ] (  [ main::i#2 main::w1#1 ] { }  ) always clobbers reg byte a 
Statement [2] main::w1#1 = main::w1#2 - $29 [ main::i#2 main::w1#1 ] (  [ main::i#2 main::w1#1 ] { }  ) always clobbers reg byte a 
Statement [3] main::$2 = main::i#2 << 1 [ main::i#2 main::w1#1 main::$2 ] (  [ main::i#2 main::w1#1 main::$2 ] { }  ) always clobbers reg byte a 
Statement [4] main::screen[main::$2] = main::w1#1 [ main::i#2 main::w1#1 ] (  [ main::i#2 main::w1#1 ] { }  ) always clobbers reg byte a 
Potential registers zp[2]:2 [ main::w1#2 main::w1#1 ] : zp[2]:2 , 
Potential registers zp[1]:4 [ main::i#2 main::i#1 ] : zp[1]:4 , reg byte x , reg byte y , 
Potential registers zp[1]:5 [ main::$2 ] : zp[1]:5 , reg byte a , reg byte x , reg byte y , 

REGISTER UPLIFT SCOPES
Uplift Scope [main] 28.6: zp[2]:2 [ main::w1#2 main::w1#1 ] 24.75: zp[1]:4 [ main::i#2 main::i#1 ] 22: zp[1]:5 [ main::$2 ] 
Uplift Scope [] 

Uplifting [main] best 681 combination zp[2]:2 [ main::w1#2 main::w1#1 ] reg byte x [ main::i#2 main::i#1 ] reg byte a [ main::$2 ] 
Uplifting [] best 681 combination 

ASSEMBLER BEFORE OPTIMIZATION
  // File Comments
// Tests subtracting bytes from signed words
  // Upstart
.pc = $801 "Basic"
:BasicUpstart(main)
.pc = $80d "Program"
  // Global Constants & labels
  // main
main: {
    .label screen = $400
    .label w1 = 2
    // [1] phi from main to main::@1 [phi:main->main::@1]
  __b1_from_main:
    // [1] phi main::i#2 = 0 [phi:main->main::@1#0] -- vbuxx=vbuc1 
    ldx #0
    // [1] phi main::w1#2 = $4d2 [phi:main->main::@1#1] -- vwsz1=vwsc1 
    lda #<$4d2
    sta.z w1
    lda #>$4d2
    sta.z w1+1
    jmp __b1
    // [1] phi from main::@1 to main::@1 [phi:main::@1->main::@1]
  __b1_from___b1:
    // [1] phi main::i#2 = main::i#1 [phi:main::@1->main::@1#0] -- register_copy 
    // [1] phi main::w1#2 = main::w1#1 [phi:main::@1->main::@1#1] -- register_copy 
    jmp __b1
    // main::@1
  __b1:
    // [2] main::w1#1 = main::w1#2 - $29 -- vwsz1=vwsz1_minus_vbsc1 
    lda.z w1
    sec
    sbc #$29
    sta.z w1
    lda.z w1+1
    sbc #>$29
    sta.z w1+1
    // [3] main::$2 = main::i#2 << 1 -- vbuaa=vbuxx_rol_1 
    txa
    asl
    // [4] main::screen[main::$2] = main::w1#1 -- pwsc1_derefidx_vbuaa=vwsz1 
    tay
    lda.z w1
    sta screen,y
    lda.z w1+1
    sta screen+1,y
    // [5] main::i#1 = ++ main::i#2 -- vbuxx=_inc_vbuxx 
    inx
    // [6] if(main::i#1!=$b) goto main::@1 -- vbuxx_neq_vbuc1_then_la1 
    cpx #$b
    bne __b1_from___b1
    jmp __breturn
    // main::@return
  __breturn:
    // [7] return 
    rts
}
  // File Data

ASSEMBLER OPTIMIZATIONS
Removing instruction jmp __b1
Removing instruction jmp __breturn
Succesful ASM optimization Pass5NextJumpElimination
Replacing label __b1_from___b1 with __b1
Removing instruction __b1_from___b1:
Succesful ASM optimization Pass5RedundantLabelElimination
Removing instruction __b1_from_main:
Removing instruction __breturn:
Succesful ASM optimization Pass5UnusedLabelElimination
Removing instruction jmp __b1
Succesful ASM optimization Pass5NextJumpElimination

FINAL SYMBOL TABLE
void main()
byte~ main::$2 reg byte a 22.0
byte main::i
byte main::i#1 reg byte x 16.5
byte main::i#2 reg byte x 8.25
const signed word* main::screen = (signed word*) 1024
signed word main::w1
signed word main::w1#1 w1 zp[2]:2 6.6000000000000005
signed word main::w1#2 w1 zp[2]:2 22.0

zp[2]:2 [ main::w1#2 main::w1#1 ]
reg byte x [ main::i#2 main::i#1 ]
reg byte a [ main::$2 ]


FINAL ASSEMBLER
Score: 591

  // File Comments
// Tests subtracting bytes from signed words
  // Upstart
.pc = $801 "Basic"
:BasicUpstart(main)
.pc = $80d "Program"
  // Global Constants & labels
  // main
main: {
    .label screen = $400
    .label w1 = 2
    // [1] phi from main to main::@1 [phi:main->main::@1]
    // [1] phi main::i#2 = 0 [phi:main->main::@1#0] -- vbuxx=vbuc1 
    ldx #0
    // [1] phi main::w1#2 = $4d2 [phi:main->main::@1#1] -- vwsz1=vwsc1 
    lda #<$4d2
    sta.z w1
    lda #>$4d2
    sta.z w1+1
    // [1] phi from main::@1 to main::@1 [phi:main::@1->main::@1]
    // [1] phi main::i#2 = main::i#1 [phi:main::@1->main::@1#0] -- register_copy 
    // [1] phi main::w1#2 = main::w1#1 [phi:main::@1->main::@1#1] -- register_copy 
    // main::@1
  __b1:
    // w1 = w1 - 41
    // [2] main::w1#1 = main::w1#2 - $29 -- vwsz1=vwsz1_minus_vbsc1 
    lda.z w1
    sec
    sbc #$29
    sta.z w1
    lda.z w1+1
    sbc #>$29
    sta.z w1+1
    // screen[i] = w1
    // [3] main::$2 = main::i#2 << 1 -- vbuaa=vbuxx_rol_1 
    txa
    asl
    // [4] main::screen[main::$2] = main::w1#1 -- pwsc1_derefidx_vbuaa=vwsz1 
    tay
    lda.z w1
    sta screen,y
    lda.z w1+1
    sta screen+1,y
    // for( byte i: 0..10 )
    // [5] main::i#1 = ++ main::i#2 -- vbuxx=_inc_vbuxx 
    inx
    // [6] if(main::i#1!=$b) goto main::@1 -- vbuxx_neq_vbuc1_then_la1 
    cpx #$b
    bne __b1
    // main::@return
    // }
    // [7] return 
    rts
}
  // File Data

