void main()
byte~ main::$1 reg byte a 22.0
const nomodify byte* main::SCREEN = (byte*) 1024
byte main::c
byte main::c#0 reg byte x 8.25
byte main::c#1 reg byte x 22.0
byte main::c#2 reg byte x 33.0
byte main::i
byte main::i#1 reg byte y 16.5
byte main::i#2 reg byte y 8.25

reg byte y [ main::i#2 main::i#1 ]
reg byte x [ main::c#2 main::c#0 main::c#1 ]
reg byte a [ main::$1 ]
