void main()
const byte* msg1[]  = "hello world!"
const byte* msg2[]  = "goodbye blue sky!"
void print(byte* print::msg)
byte* print::msg
byte* print::msg#2 msg zp[2]:4 151.5
byte* print::msg#3 msg zp[2]:4 104.66666666666666
byte* print::msg#4 msg zp[2]:4 11.0
byte* screen
byte* screen#11 screen zp[2]:6 157.0
byte* screen#12 screen zp[2]:6 25.5
byte* screen#17 screen zp[2]:6 13.0
void strip(byte* strip::p , byte strip::c)
byte strip::c
byte strip::c#3 reg byte x 10.1
byte* strip::dest
byte* strip::dest#0 dest zp[2]:2 11.0
byte* strip::dest#1 dest zp[2]:2 202.0
byte* strip::dest#2 dest zp[2]:2 138.33333333333331
byte* strip::dest#4 dest zp[2]:2 75.75
byte* strip::p
byte* strip::p#2 p zp[2]:8 101.0
byte* strip::p#4 p_1 zp[2]:4 85.99999999999999
byte* strip::p#7 p_1 zp[2]:4 22.0
byte* strip::p#8 p_1 zp[2]:4 202.0

reg byte x [ strip::c#3 ]
zp[2]:2 [ strip::dest#2 strip::dest#0 strip::dest#4 strip::dest#1 ]
zp[2]:4 [ print::msg#3 print::msg#4 print::msg#2 strip::p#4 strip::p#7 strip::p#8 ]
zp[2]:6 [ screen#11 screen#17 screen#12 ]
zp[2]:8 [ strip::p#2 ]
