const byte MOVE_TO = 0
const byte OFFSET_STRUCT_SEGMENT_TO = 1
const byte OFFSET_STRUCT_VECTOR_Y = 2
const nomodify signed word* SCREEN = (signed word*) 1024
const byte SIZEOF_STRUCT_VECTOR = 4
const byte SPLINE_TO = 1
const struct Segment* letter_c[]  = { { type: MOVE_TO, to: { x: (signed word)'a', y: (signed word)'b' }, via: { x: 0, y: 0 } }, { type: SPLINE_TO, to: { x: (signed word)'c', y: (signed word)'d' }, via: { x: $67, y: $a9 } }, { type: SPLINE_TO, to: { x: (signed word)'e', y: (signed word)'f' }, via: { x: $4b, y: $c3 } } }
void main()
byte~ main::$1 reg byte a 11.0
byte~ main::$2 reg byte a 22.0
byte~ main::$3 reg byte a 22.0
byte~ main::$4 reg byte a 22.0
byte main::i
byte main::i#1 i zp[1]:2 16.5
byte main::i#2 i zp[1]:2 4.4
byte main::j
byte main::j#1 reg byte x 11.0
byte main::j#2 j zp[1]:3 7.333333333333333
byte main::j#3 j zp[1]:3 5.5
struct Vector main::to loadstore zp[4]:4

zp[1]:2 [ main::i#2 main::i#1 ]
zp[1]:3 [ main::j#3 main::j#2 ]
reg byte a [ main::$4 ]
reg byte a [ main::$1 ]
reg byte a [ main::$2 ]
reg byte x [ main::j#1 ]
reg byte a [ main::$3 ]
zp[4]:4 [ main::to ]
