const struct Point $0 = { x: 1, y: 2 }
const byte OFFSET_STRUCT_POINT_Y = 1
const nomodify struct Point* SCREEN = (struct Point*) 1024
const byte SIZEOF_STRUCT_POINT = 2
void main()
struct Point main::p1 loadstore zp[2]:3
struct Point main::p2
const byte main::p2_x = 3
const byte main::p2_y = 4
void print1(byte print1::p_x , byte print1::p_y , byte print1::idx)
byte~ print1::$0 zp[1]:2 16.5
byte print1::idx
byte print1::idx#2 reg byte a 11.0
struct Point print1::p
byte print1::p_x
byte print1::p_x#0 reg byte y 2.0
byte print1::p_x#2 reg byte y 6.5
byte print1::p_y
byte print1::p_y#0 reg byte x 4.0
byte print1::p_y#2 reg byte x 4.333333333333333
void print2(struct Point print2::p , byte print2::idx)
byte~ print2::$0 reg byte y 22.0
byte print2::idx
byte print2::idx#2 reg byte a 11.0
struct Point print2::p loadstore zp[2]:5

reg byte a [ print1::idx#2 ]
reg byte y [ print1::p_x#2 print1::p_x#0 ]
reg byte x [ print1::p_y#2 print1::p_y#0 ]
reg byte a [ print2::idx#2 ]
zp[1]:2 [ print1::$0 ]
reg byte y [ print2::$0 ]
zp[2]:3 [ main::p1 ]
zp[2]:5 [ print2::p ]
