const nomodify byte* SCREEN = (byte*) 1024
const byte* henry_initials[$40]  = "hg"
byte idx
byte idx#12 reg byte x 84.0
byte idx#14 reg byte x 3.25
byte idx#20 reg byte x 13.0
byte idx#3 reg byte x 101.0
const byte* jesper_initials[$40]  = "jg"
void main()
void print_person(dword print_person::person_id , byte* print_person::person_initials)
byte print_person::i
byte print_person::i#1 reg byte y 202.0
byte print_person::i#2 reg byte y 101.0
dword print_person::person_id
byte* print_person::person_initials
byte* print_person::person_initials#4 person_initials zp[2]:2 33.666666666666664

zp[2]:2 [ print_person::person_initials#4 ]
reg byte y [ print_person::i#2 print_person::i#1 ]
reg byte x [ idx#12 idx#20 idx#14 idx#3 ]
