const byte* $0[$40]  = "jesper"
const byte* $1[$40]  = "henriette"
const byte* DIGIT[]  = "0123456789"
const nomodify byte* SCREEN = (byte*) 1024
byte idx
byte idx#14 idx zp[1]:2 12.0
byte idx#15 reg byte x 84.0
byte idx#17 idx zp[1]:2 3.25
byte idx#3 reg byte x 16.5
byte idx#4 reg byte x 22.0
byte idx#5 reg byte x 101.0
void main()
const byte main::henriette_id = 7
const byte* main::henriette_name[$40]  = { fill( $40, 0) }
const byte main::jesper_id = 4
const byte* main::jesper_name[$40]  = { fill( $40, 0) }
void print_person(byte print_person::person_id , byte* print_person::person_name)
byte print_person::i
byte print_person::i#1 reg byte y 202.0
byte print_person::i#2 reg byte y 101.0
struct Person print_person::person
byte print_person::person_id
byte print_person::person_id#2 reg byte x 11.0
byte* print_person::person_name
byte* print_person::person_name#4 person_name zp[2]:3 20.2

reg byte x [ print_person::person_id#2 ]
zp[1]:2 [ idx#14 idx#17 ]
zp[2]:3 [ print_person::person_name#4 ]
reg byte y [ print_person::i#2 print_person::i#1 ]
reg byte x [ idx#15 idx#4 idx#5 ]
reg byte x [ idx#3 ]
