const nomodify byte* BG_COLOR = (byte*)&COLORS+OFFSET_STRUCT_SCREEN_COLORS_BG0
const nomodify byte* BORDER_COLOR = (byte*)&COLORS
struct SCREEN_COLORS COLORS loadstore mem[5] = {}
const byte OFFSET_STRUCT_SCREEN_COLORS_BG0 = 1
const byte SIZEOF_STRUCT_SCREEN_COLORS = 5
void main()

mem[5] [ COLORS ]
