const byte MOVE_TO = 0
const byte OFFSET_STRUCT_SEGMENT_TO = 1
const byte OFFSET_STRUCT_SPLINEVECTOR16_Y = 1
const nomodify byte* SCREEN = (byte*) 1024
const byte SPLINE_TO = 1
const struct Segment* letter_c[]  = { { type: MOVE_TO, to: { x: 'a', y: 'b' }, via: { x: 0, y: 0 } }, { type: SPLINE_TO, to: { x: 'c', y: 'd' }, via: { x: $67, y: $a9 } }, { type: SPLINE_TO, to: { x: 'e', y: 'f' }, via: { x: $4b, y: $c3 } } }
void main()
byte~ main::$1 reg byte y 16.5
byte~ main::$2 reg byte a 22.0
byte main::i
byte main::i#1 reg byte x 16.5
byte main::i#2 reg byte x 4.888888888888889
byte main::j
byte main::j#1 reg byte y 16.5
byte main::j#2 j zp[1]:2 7.333333333333333
byte main::j#3 j zp[1]:2 5.5
byte main::to_x
byte main::to_x#0 to_x zp[1]:3 11.0
byte main::to_y
byte main::to_y#0 to_y zp[1]:4 7.333333333333333

reg byte x [ main::i#2 main::i#1 ]
zp[1]:2 [ main::j#3 main::j#2 ]
reg byte a [ main::$2 ]
reg byte y [ main::$1 ]
zp[1]:3 [ main::to_x#0 ]
zp[1]:4 [ main::to_y#0 ]
reg byte y [ main::j#1 ]
