
CONTROL FLOW GRAPH SSA

void main()
main: scope:[main]  from __start
  main::i#0 = 0
  to:main::@1
main::@1: scope:[main]  from main main::@6
  main::i#2 = phi( main/main::i#0, main::@6/main::i#1 )
  if(main::i#2==1) goto main::@2
  to:main::@7
main::@2: scope:[main]  from main::@1
  main::i#3 = phi( main::@1/main::i#2 )
  main::SCREEN[main::i#3] = '1'
  to:main::@6
main::@7: scope:[main]  from main::@1
  main::i#4 = phi( main::@1/main::i#2 )
  if(main::i#4==2) goto main::@3
  to:main::@8
main::@8: scope:[main]  from main::@7
  main::i#5 = phi( main::@7/main::i#4 )
  if(main::i#5==3) goto main::@3
  to:main::@9
main::@3: scope:[main]  from main::@7 main::@8
  main::i#6 = phi( main::@7/main::i#4, main::@8/main::i#5 )
  main::SCREEN[main::i#6] = '3'
  to:main::@4
main::@9: scope:[main]  from main::@8
  main::i#7 = phi( main::@8/main::i#5 )
  if(main::i#7==4) goto main::@4
  to:main::@5
main::@4: scope:[main]  from main::@3 main::@9
  main::i#8 = phi( main::@3/main::i#6, main::@9/main::i#7 )
  main::SCREEN[main::i#8] = '4'
  to:main::@6
main::@5: scope:[main]  from main::@9
  main::i#9 = phi( main::@9/main::i#7 )
  main::SCREEN[main::i#9] = 'd'
  to:main::@6
main::@6: scope:[main]  from main::@2 main::@4 main::@5
  main::i#10 = phi( main::@2/main::i#3, main::@4/main::i#8, main::@5/main::i#9 )
  main::i#1 = main::i#10 + rangenext(0,5)
  main::$0 = main::i#1 != rangelast(0,5)
  if(main::$0) goto main::@1
  to:main::@return
main::@return: scope:[main]  from main::@6
  return 
  to:@return

void __start()
__start: scope:[__start]  from
  call main 
  to:__start::@1
__start::@1: scope:[__start]  from __start
  to:__start::@return
__start::@return: scope:[__start]  from __start::@1
  return 
  to:@return

SYMBOL TABLE SSA
void __start()
void main()
bool~ main::$0
const nomodify byte* main::SCREEN = (byte*)$400
byte main::i
byte main::i#0
byte main::i#1
byte main::i#10
byte main::i#2
byte main::i#3
byte main::i#4
byte main::i#5
byte main::i#6
byte main::i#7
byte main::i#8
byte main::i#9

Adding number conversion cast (unumber) 1 in if(main::i#2==1) goto main::@2
Adding number conversion cast (unumber) 2 in if(main::i#4==2) goto main::@3
Adding number conversion cast (unumber) 3 in if(main::i#5==3) goto main::@3
Adding number conversion cast (unumber) 4 in if(main::i#7==4) goto main::@4
Successful SSA optimization PassNAddNumberTypeConversions
Simplifying constant pointer cast (byte*) 1024
Simplifying constant integer cast 1
Simplifying constant integer cast 2
Simplifying constant integer cast 3
Simplifying constant integer cast 4
Successful SSA optimization PassNCastSimplification
Finalized unsigned number type 1
Finalized unsigned number type 2
Finalized unsigned number type 3
Finalized unsigned number type 4
Successful SSA optimization PassNFinalizeNumberTypeConversions
Alias main::i#2 = main::i#3 main::i#4 main::i#5 main::i#7 main::i#9 
Successful SSA optimization Pass2AliasElimination
Alias main::i#2 = main::i#6 
Successful SSA optimization Pass2AliasElimination
Alias main::i#2 = main::i#8 
Successful SSA optimization Pass2AliasElimination
Alias main::i#10 = main::i#2 
Successful SSA optimization Pass2AliasElimination
Simple Condition main::$0 [12] if(main::i#1!=rangelast(0,5)) goto main::@1
Successful SSA optimization Pass2ConditionalJumpSimplification
Constant main::i#0 = 0
Successful SSA optimization Pass2ConstantIdentification
Resolved ranged next value [10] main::i#1 = ++ main::i#10 to ++
Resolved ranged comparison value [12] if(main::i#1!=rangelast(0,5)) goto main::@1 to 6
Removing unused procedure __start
Removing unused procedure block __start
Removing unused procedure block __start::@1
Removing unused procedure block __start::@return
Successful SSA optimization PassNEliminateEmptyStart
Adding number conversion cast (unumber) 6 in [10] if(main::i#1!=6) goto main::@1
Successful SSA optimization PassNAddNumberTypeConversions
Simplifying constant integer cast 6
Successful SSA optimization PassNCastSimplification
Finalized unsigned number type 6
Successful SSA optimization PassNFinalizeNumberTypeConversions
Inlining constant with var siblings main::i#0
Constant inlined main::i#0 = 0
Successful SSA optimization Pass2ConstantInlining
Added new block during phi lifting main::@10(between main::@6 and main::@1)
Adding NOP phi() at start of main
CALL GRAPH

Created 1 initial phi equivalence classes
Coalesced [10] main::i#11 = main::i#1
Coalesced down to 1 phi equivalence classes
Culled Empty Block label main::@10
Adding NOP phi() at start of main

FINAL CONTROL FLOW GRAPH

void main()
main: scope:[main]  from
  [0] phi()
  to:main::@1
main::@1: scope:[main]  from main main::@6
  [1] main::i#10 = phi( main/0, main::@6/main::i#1 )
  [2] if(main::i#10==1) goto main::@2
  to:main::@7
main::@7: scope:[main]  from main::@1
  [3] if(main::i#10==2) goto main::@3
  to:main::@8
main::@8: scope:[main]  from main::@7
  [4] if(main::i#10==3) goto main::@3
  to:main::@9
main::@9: scope:[main]  from main::@8
  [5] if(main::i#10==4) goto main::@4
  to:main::@5
main::@5: scope:[main]  from main::@9
  [6] main::SCREEN[main::i#10] = 'd'
  to:main::@6
main::@6: scope:[main]  from main::@2 main::@4 main::@5
  [7] main::i#1 = ++ main::i#10
  [8] if(main::i#1!=6) goto main::@1
  to:main::@return
main::@return: scope:[main]  from main::@6
  [9] return 
  to:@return
main::@4: scope:[main]  from main::@3 main::@9
  [10] main::SCREEN[main::i#10] = '4'
  to:main::@6
main::@3: scope:[main]  from main::@7 main::@8
  [11] main::SCREEN[main::i#10] = '3'
  to:main::@4
main::@2: scope:[main]  from main::@1
  [12] main::SCREEN[main::i#10] = '1'
  to:main::@6


VARIABLE REGISTER WEIGHTS
void main()
byte main::i
byte main::i#1 16.5
byte main::i#10 12.222222222222221

Initial phi equivalence classes
[ main::i#10 main::i#1 ]
Complete equivalence classes
[ main::i#10 main::i#1 ]
Allocated zp[1]:2 [ main::i#10 main::i#1 ]
REGISTER UPLIFT POTENTIAL REGISTERS
Statement [6] main::SCREEN[main::i#10] = 'd' [ main::i#10 ] (  [ main::i#10 ] { }  ) always clobbers reg byte a 
Removing always clobbered register reg byte a as potential for zp[1]:2 [ main::i#10 main::i#1 ]
Statement [10] main::SCREEN[main::i#10] = '4' [ main::i#10 ] (  [ main::i#10 ] { }  ) always clobbers reg byte a 
Statement [11] main::SCREEN[main::i#10] = '3' [ main::i#10 ] (  [ main::i#10 ] { }  ) always clobbers reg byte a 
Statement [12] main::SCREEN[main::i#10] = '1' [ main::i#10 ] (  [ main::i#10 ] { }  ) always clobbers reg byte a 
Statement [6] main::SCREEN[main::i#10] = 'd' [ main::i#10 ] (  [ main::i#10 ] { }  ) always clobbers reg byte a 
Statement [10] main::SCREEN[main::i#10] = '4' [ main::i#10 ] (  [ main::i#10 ] { }  ) always clobbers reg byte a 
Statement [11] main::SCREEN[main::i#10] = '3' [ main::i#10 ] (  [ main::i#10 ] { }  ) always clobbers reg byte a 
Statement [12] main::SCREEN[main::i#10] = '1' [ main::i#10 ] (  [ main::i#10 ] { }  ) always clobbers reg byte a 
Potential registers zp[1]:2 [ main::i#10 main::i#1 ] : zp[1]:2 , reg byte x , reg byte y , 

REGISTER UPLIFT SCOPES
Uplift Scope [main] 28.72: zp[1]:2 [ main::i#10 main::i#1 ] 
Uplift Scope [] 

Uplifting [main] best 881 combination reg byte x [ main::i#10 main::i#1 ] 
Uplifting [] best 881 combination 

ASSEMBLER BEFORE OPTIMIZATION
  // File Comments
// Tests simple switch()-statement
// Expected output 'd1444d'
  // Upstart
.pc = $801 "Basic"
:BasicUpstart(main)
.pc = $80d "Program"
  // Global Constants & labels
  // main
main: {
    .label SCREEN = $400
    // [1] phi from main to main::@1 [phi:main->main::@1]
  __b1_from_main:
    // [1] phi main::i#10 = 0 [phi:main->main::@1#0] -- vbuxx=vbuc1 
    ldx #0
    jmp __b1
    // [1] phi from main::@6 to main::@1 [phi:main::@6->main::@1]
  __b1_from___b6:
    // [1] phi main::i#10 = main::i#1 [phi:main::@6->main::@1#0] -- register_copy 
    jmp __b1
    // main::@1
  __b1:
    // [2] if(main::i#10==1) goto main::@2 -- vbuxx_eq_vbuc1_then_la1 
    cpx #1
    beq __b2
    jmp __b7
    // main::@7
  __b7:
    // [3] if(main::i#10==2) goto main::@3 -- vbuxx_eq_vbuc1_then_la1 
    cpx #2
    beq __b3
    jmp __b8
    // main::@8
  __b8:
    // [4] if(main::i#10==3) goto main::@3 -- vbuxx_eq_vbuc1_then_la1 
    // A case with no body
    cpx #3
    beq __b3
    jmp __b9
    // main::@9
  __b9:
    // [5] if(main::i#10==4) goto main::@4 -- vbuxx_eq_vbuc1_then_la1 
    cpx #4
    beq __b4
    jmp __b5
    // main::@5
  __b5:
    // [6] main::SCREEN[main::i#10] = 'd' -- pbuc1_derefidx_vbuxx=vbuc2 
    // No case for 0 & 5
    lda #'d'
    sta SCREEN,x
    jmp __b6
    // main::@6
  __b6:
    // [7] main::i#1 = ++ main::i#10 -- vbuxx=_inc_vbuxx 
    inx
    // [8] if(main::i#1!=6) goto main::@1 -- vbuxx_neq_vbuc1_then_la1 
    cpx #6
    bne __b1_from___b6
    jmp __breturn
    // main::@return
  __breturn:
    // [9] return 
    rts
    // main::@4
  __b4:
    // [10] main::SCREEN[main::i#10] = '4' -- pbuc1_derefidx_vbuxx=vbuc2 
    lda #'4'
    sta SCREEN,x
    jmp __b6
    // main::@3
  __b3:
    // [11] main::SCREEN[main::i#10] = '3' -- pbuc1_derefidx_vbuxx=vbuc2 
    // A case with fall-through
    lda #'3'
    sta SCREEN,x
    jmp __b4
    // main::@2
  __b2:
    // [12] main::SCREEN[main::i#10] = '1' -- pbuc1_derefidx_vbuxx=vbuc2 
    // A simple case with a break
    lda #'1'
    sta SCREEN,x
    jmp __b6
}
  // File Data

ASSEMBLER OPTIMIZATIONS
Removing instruction jmp __b1
Removing instruction jmp __b7
Removing instruction jmp __b8
Removing instruction jmp __b9
Removing instruction jmp __b5
Removing instruction jmp __b6
Removing instruction jmp __breturn
Succesful ASM optimization Pass5NextJumpElimination
Replacing label __b1_from___b6 with __b1
Removing instruction __b1_from___b6:
Succesful ASM optimization Pass5RedundantLabelElimination
Removing instruction __b1_from_main:
Removing instruction __b7:
Removing instruction __b8:
Removing instruction __b9:
Removing instruction __b5:
Removing instruction __breturn:
Succesful ASM optimization Pass5UnusedLabelElimination
Removing instruction jmp __b1
Succesful ASM optimization Pass5NextJumpElimination

FINAL SYMBOL TABLE
void main()
const nomodify byte* main::SCREEN = (byte*) 1024
byte main::i
byte main::i#1 reg byte x 16.5
byte main::i#10 reg byte x 12.222222222222221

reg byte x [ main::i#10 main::i#1 ]


FINAL ASSEMBLER
Score: 641

  // File Comments
// Tests simple switch()-statement
// Expected output 'd1444d'
  // Upstart
.pc = $801 "Basic"
:BasicUpstart(main)
.pc = $80d "Program"
  // Global Constants & labels
  // main
main: {
    .label SCREEN = $400
    // [1] phi from main to main::@1 [phi:main->main::@1]
    // [1] phi main::i#10 = 0 [phi:main->main::@1#0] -- vbuxx=vbuc1 
    ldx #0
    // [1] phi from main::@6 to main::@1 [phi:main::@6->main::@1]
    // [1] phi main::i#10 = main::i#1 [phi:main::@6->main::@1#0] -- register_copy 
    // main::@1
  __b1:
    // case 1:
    //                 // A simple case with a break
    //                 SCREEN[i] = '1';
    //                 break;
    // [2] if(main::i#10==1) goto main::@2 -- vbuxx_eq_vbuc1_then_la1 
    cpx #1
    beq __b2
    // main::@7
    // case 2:
    // [3] if(main::i#10==2) goto main::@3 -- vbuxx_eq_vbuc1_then_la1 
    cpx #2
    beq __b3
    // main::@8
    // case 3:
    //                 // A case with fall-through
    //                 SCREEN[i] = '3';
    // [4] if(main::i#10==3) goto main::@3 -- vbuxx_eq_vbuc1_then_la1 
    // A case with no body
    cpx #3
    beq __b3
    // main::@9
    // case 4:
    //                 SCREEN[i] = '4';
    //                 break;
    // [5] if(main::i#10==4) goto main::@4 -- vbuxx_eq_vbuc1_then_la1 
    cpx #4
    beq __b4
    // main::@5
    // SCREEN[i] = 'd'
    // [6] main::SCREEN[main::i#10] = 'd' -- pbuc1_derefidx_vbuxx=vbuc2 
    // No case for 0 & 5
    lda #'d'
    sta SCREEN,x
    // main::@6
  __b6:
    // for(char i:0..5)
    // [7] main::i#1 = ++ main::i#10 -- vbuxx=_inc_vbuxx 
    inx
    // [8] if(main::i#1!=6) goto main::@1 -- vbuxx_neq_vbuc1_then_la1 
    cpx #6
    bne __b1
    // main::@return
    // }
    // [9] return 
    rts
    // main::@4
  __b4:
    // SCREEN[i] = '4'
    // [10] main::SCREEN[main::i#10] = '4' -- pbuc1_derefidx_vbuxx=vbuc2 
    lda #'4'
    sta SCREEN,x
    jmp __b6
    // main::@3
  __b3:
    // SCREEN[i] = '3'
    // [11] main::SCREEN[main::i#10] = '3' -- pbuc1_derefidx_vbuxx=vbuc2 
    // A case with fall-through
    lda #'3'
    sta SCREEN,x
    jmp __b4
    // main::@2
  __b2:
    // SCREEN[i] = '1'
    // [12] main::SCREEN[main::i#10] = '1' -- pbuc1_derefidx_vbuxx=vbuc2 
    // A simple case with a break
    lda #'1'
    sta SCREEN,x
    jmp __b6
}
  // File Data

