void main()
byte~ main::$1 reg byte a 22.0
const byte* main::SCREEN = (byte*) 1024
byte main::i
byte main::i#1 reg byte x 16.5
byte main::i#2 reg byte x 8.25
signed word main::w
signed word main::w#1 w zp[2]:2 6.6000000000000005
signed word main::w#2 w zp[2]:2 22.0

zp[2]:2 [ main::w#2 main::w#1 ]
reg byte x [ main::i#2 main::i#1 ]
reg byte a [ main::$1 ]
