void main()
byte~ main::$0 reg byte x 22.0
byte main::i
byte main::i#1 reg byte y 16.5
byte main::i#2 reg byte y 11.0
const byte* table[$100]  = { fill( $100, 0) }

reg byte y [ main::i#2 main::i#1 ]
reg byte x [ main::$0 ]
