Resolved forward reference b to b
Resolved forward reference screen to screen

CONTROL FLOW GRAPH SSA

void main()
main: scope:[main]  from __start
  *screen = b
  to:main::@return
main::@return: scope:[main]  from main
  return 
  to:@return

void __start()
__start: scope:[__start]  from
  call main 
  to:__start::@1
__start::@1: scope:[__start]  from __start
  to:__start::@return
__start::@return: scope:[__start]  from __start::@1
  return 
  to:@return

SYMBOL TABLE SSA
void __start()
const nomodify byte b = 'a'
void main()
const nomodify byte* screen = (byte*)$400

Simplifying constant pointer cast (byte*) 1024
Successful SSA optimization PassNCastSimplification
Removing unused procedure __start
Removing unused procedure block __start
Removing unused procedure block __start::@1
Removing unused procedure block __start::@return
Successful SSA optimization PassNEliminateEmptyStart
CALL GRAPH

Created 0 initial phi equivalence classes
Coalesced down to 0 phi equivalence classes

FINAL CONTROL FLOW GRAPH

void main()
main: scope:[main]  from
  [0] *screen = b
  to:main::@return
main::@return: scope:[main]  from main
  [1] return 
  to:@return


VARIABLE REGISTER WEIGHTS
void main()

Initial phi equivalence classes
Complete equivalence classes
REGISTER UPLIFT POTENTIAL REGISTERS
Statement [0] *screen = b [ ] (  [ ] { }  ) always clobbers reg byte a 

REGISTER UPLIFT SCOPES
Uplift Scope [main] 
Uplift Scope [] 

Uplifting [main] best 15 combination 
Uplifting [] best 15 combination 

ASSEMBLER BEFORE OPTIMIZATION
  // File Comments
// Illustrates the problem with variable forward references not working
  // Upstart
.pc = $801 "Basic"
:BasicUpstart(main)
.pc = $80d "Program"
  // Global Constants & labels
  .const b = 'a'
  .label screen = $400
  // main
main: {
    // [0] *screen = b -- _deref_pbuc1=vbuc2 
    lda #b
    sta screen
    jmp __breturn
    // main::@return
  __breturn:
    // [1] return 
    rts
}
  // File Data

ASSEMBLER OPTIMIZATIONS
Removing instruction jmp __breturn
Succesful ASM optimization Pass5NextJumpElimination
Removing instruction __breturn:
Succesful ASM optimization Pass5UnusedLabelElimination

FINAL SYMBOL TABLE
const nomodify byte b = 'a'
void main()
const nomodify byte* screen = (byte*) 1024



FINAL ASSEMBLER
Score: 12

  // File Comments
// Illustrates the problem with variable forward references not working
  // Upstart
.pc = $801 "Basic"
:BasicUpstart(main)
.pc = $80d "Program"
  // Global Constants & labels
  .const b = 'a'
  .label screen = $400
  // main
main: {
    // *screen = b
    // [0] *screen = b -- _deref_pbuc1=vbuc2 
    lda #b
    sta screen
    // main::@return
    // }
    // [1] return 
    rts
}
  // File Data

