const nomodify byte* BGCOL = (byte*) 53281
void main()
byte main::a
byte main::a#1 reg byte a 2.6666666666666665
byte main::a#2 reg byte a 4.0
__varcall byte plus(byte plus::a , byte plus::b)
byte~ plus::$0 reg byte a 22.0
byte plus::a loadstore zp[1]:3 3.75
byte plus::b loadstore zp[1]:4 7.5
byte plus::return loadstore zp[1]:2 3.75

reg byte a [ plus::$0 ]
zp[1]:2 [ plus::return ]
zp[1]:3 [ plus::a ]
zp[1]:4 [ plus::b ]
reg byte a [ main::a#1 ]
reg byte a [ main::a#2 ]
