(label) @1
(label) @begin
(label) @end
(byte*) BITMAP_GRAPHICS
(const byte*) BITMAP_GRAPHICS#0 BITMAP_GRAPHICS = (byte*) 24576
(byte*) BITMAP_SCREEN
(const byte*) BITMAP_SCREEN#0 BITMAP_SCREEN = (byte*) 23552
(byte) BLACK
(byte*) CIA2_PORT_A
(const byte*) CIA2_PORT_A#0 CIA2_PORT_A = (byte*) 56576
(byte*) CIA2_PORT_A_DDR
(const byte*) CIA2_PORT_A_DDR#0 CIA2_PORT_A_DDR = (byte*) 56578
(byte*) D011
(const byte*) D011#0 D011 = (byte*) 53265
(byte*) D018
(const byte*) D018#0 D018 = (byte*) 53272
(const byte) LINE_TO LINE_TO = (byte) 2
(const byte) MOVE_TO MOVE_TO = (byte) 0
(const byte) OFFSET_STRUCT_SEGMENT_TO OFFSET_STRUCT_SEGMENT_TO = (byte) 1
(const byte) OFFSET_STRUCT_SEGMENT_VIA OFFSET_STRUCT_SEGMENT_VIA = (byte) 5
(const byte) OFFSET_STRUCT_SPLINEVECTOR16_Y OFFSET_STRUCT_SPLINEVECTOR16_Y = (byte) 2
(byte*) PRINT_SCREEN
(const byte*) PRINT_SCREEN#0 PRINT_SCREEN = (byte*) 1024
(const byte) RADIX::BINARY BINARY = (number) 2
(const byte) RADIX::DECIMAL DECIMAL = (number) $a
(const byte) RADIX::HEXADECIMAL HEXADECIMAL = (number) $10
(const byte) RADIX::OCTAL OCTAL = (number) 8
(const byte) SIZEOF_STRUCT_SEGMENT SIZEOF_STRUCT_SEGMENT = (byte) 9
(const byte) SIZEOF_STRUCT_SPLINEVECTOR16 SIZEOF_STRUCT_SPLINEVECTOR16 = (byte) 4
(struct SplineVector16[9]) SPLINE_8SEG
(const struct SplineVector16[9]) SPLINE_8SEG#0 SPLINE_8SEG = { fill( 9, 0) }
(const byte) SPLINE_TO SPLINE_TO = (byte) 1
(const byte) Segment::SegmentType::LINE_TO LINE_TO = (byte) 2
(const byte) Segment::SegmentType::MOVE_TO MOVE_TO = (byte) 0
(const byte) Segment::SegmentType::SPLINE_TO SPLINE_TO = (byte) 1
(struct SplineVector16) Segment::to
(byte) Segment::type
(struct SplineVector16) Segment::via
(signed word) SplineVector16::x
(signed word) SplineVector16::y
(signed dword) SplineVector32::x
(signed dword) SplineVector32::y
(byte) VIC_BMM
(const byte) VIC_BMM#0 VIC_BMM = (byte) $20
(byte) VIC_DEN
(const byte) VIC_DEN#0 VIC_DEN = (byte) $10
(byte) VIC_RSEL
(const byte) VIC_RSEL#0 VIC_RSEL = (byte) 8
(byte) WHITE
(const byte) WHITE#0 WHITE = (byte) 1
(word()) abs_u16((word) abs_u16::w)
(byte~) abs_u16::$0 reg byte a 4.0
(byte~) abs_u16::$1 reg byte a 4.0
(label) abs_u16::@1
(label) abs_u16::@return
(word) abs_u16::return
(word) abs_u16::return#0 return zp ZP_WORD:20 4.0
(word) abs_u16::return#1 return zp ZP_WORD:20 4.0
(word) abs_u16::return#2 return zp ZP_WORD:20 4.0
(word) abs_u16::return#4 return zp ZP_WORD:20 2.0
(word) abs_u16::w
(word) abs_u16::w#0 w zp ZP_WORD:20 4.0
(word) abs_u16::w#1 w zp ZP_WORD:20 4.0
(word) abs_u16::w#2 w zp ZP_WORD:20 2.5
(void()) bitmap_clear((byte) bitmap_clear::bgcol , (byte) bitmap_clear::fgcol)
(label) bitmap_clear::@1
(label) bitmap_clear::@return
(byte) bitmap_clear::bgcol
(byte) bitmap_clear::col
(const byte) bitmap_clear::col#0 col = (const byte) WHITE#0*(byte) $10
(byte) bitmap_clear::fgcol
(byte*) bitmap_gfx
(void()) bitmap_init((byte*) bitmap_init::gfx , (byte*) bitmap_init::screen)
(byte~) bitmap_init::$4 reg byte a 22.0
(byte~) bitmap_init::$5 reg byte a 22.0
(byte~) bitmap_init::$6 reg byte a 22.0
(byte~) bitmap_init::$7 $7 zp ZP_BYTE:52 5.5
(label) bitmap_init::@1
(label) bitmap_init::@2
(label) bitmap_init::@3
(label) bitmap_init::@4
(label) bitmap_init::@5
(label) bitmap_init::@6
(label) bitmap_init::@return
(byte) bitmap_init::bits
(byte) bitmap_init::bits#1 reg byte a 11.0
(byte) bitmap_init::bits#3 reg byte a 16.5
(byte) bitmap_init::bits#4 reg byte a 7.333333333333333
(byte*) bitmap_init::gfx
(byte*) bitmap_init::screen
(byte) bitmap_init::x
(byte) bitmap_init::x#1 reg byte x 16.5
(byte) bitmap_init::x#2 reg byte x 5.5
(byte) bitmap_init::y
(byte) bitmap_init::y#1 reg byte x 16.5
(byte) bitmap_init::y#2 reg byte x 5.5
(byte*) bitmap_init::yoffs
(byte*) bitmap_init::yoffs#1 yoffs zp ZP_WORD:30 22.0
(byte*) bitmap_init::yoffs#2 yoffs zp ZP_WORD:30 6.875
(byte*) bitmap_init::yoffs#4 yoffs zp ZP_WORD:30 11.0
(void()) bitmap_line((word) bitmap_line::x1 , (word) bitmap_line::y1 , (word) bitmap_line::x2 , (word) bitmap_line::y2)
(label) bitmap_line::@1
(label) bitmap_line::@10
(label) bitmap_line::@11
(label) bitmap_line::@12
(label) bitmap_line::@13
(label) bitmap_line::@14
(label) bitmap_line::@15
(label) bitmap_line::@16
(label) bitmap_line::@17
(label) bitmap_line::@18
(label) bitmap_line::@2
(label) bitmap_line::@3
(label) bitmap_line::@4
(label) bitmap_line::@5
(label) bitmap_line::@6
(label) bitmap_line::@7
(label) bitmap_line::@8
(label) bitmap_line::@9
(label) bitmap_line::@return
(word) bitmap_line::dx
(word) bitmap_line::dx#0 dx zp ZP_WORD:36 7.775
(word) bitmap_line::dy
(word) bitmap_line::dy#0 dy zp ZP_WORD:20 8.638888888888888
(word) bitmap_line::e
(word) bitmap_line::e#0 e zp ZP_WORD:12 4.0
(word) bitmap_line::e#1 e zp ZP_WORD:12 134.66666666666666
(word) bitmap_line::e#2 e zp ZP_WORD:12 202.0
(word) bitmap_line::e#3 e zp ZP_WORD:12 40.8
(word) bitmap_line::e#6 e zp ZP_WORD:12 151.5
(word) bitmap_line::e1
(word) bitmap_line::e1#0 e1 zp ZP_WORD:14 4.0
(word) bitmap_line::e1#1 e1 zp ZP_WORD:14 134.66666666666666
(word) bitmap_line::e1#2 e1 zp ZP_WORD:14 202.0
(word) bitmap_line::e1#3 e1 zp ZP_WORD:14 40.8
(word) bitmap_line::e1#6 e1 zp ZP_WORD:14 151.5
(word) bitmap_line::sx
(word) bitmap_line::sx#0 sx zp ZP_WORD:38 6.800000000000001
(word) bitmap_line::sy
(word) bitmap_line::sy#0 sy zp ZP_WORD:18 7.846153846153847
(word) bitmap_line::x
(word) bitmap_line::x#0 x zp ZP_WORD:3 5.304347826086959
(word) bitmap_line::x#1 x zp ZP_WORD:3 101.0
(word) bitmap_line::x#12 x zp ZP_WORD:3 202.0
(word) bitmap_line::x#13 x zp ZP_WORD:3 58.00000000000001
(word) bitmap_line::x#15 x zp ZP_WORD:3 57.714285714285715
(word) bitmap_line::x#6 x zp ZP_WORD:3 102.0
(word) bitmap_line::x#7 x zp ZP_WORD:3 76.25
(word) bitmap_line::x1
(word) bitmap_line::x1#0 x1 zp ZP_WORD:3 5.5
(word) bitmap_line::x1#1 x1 zp ZP_WORD:3 40.4
(word) bitmap_line::x2
(word) bitmap_line::x2#0 x2 zp ZP_WORD:8 11.0
(word) bitmap_line::x2#10 x2 zp ZP_WORD:8 6.78125
(word~) bitmap_line::x2#13 x2 zp ZP_WORD:8 101.0
(word) bitmap_line::y
(word) bitmap_line::y#0 y zp ZP_WORD:5 5.454545454545454
(word) bitmap_line::y#1 y zp ZP_WORD:5 57.714285714285715
(word) bitmap_line::y#13 y zp ZP_WORD:5 202.0
(word) bitmap_line::y#15 y zp ZP_WORD:5 43.57142857142858
(word) bitmap_line::y#2 y zp ZP_WORD:5 101.0
(word) bitmap_line::y#4 y zp ZP_WORD:5 51.0
(word) bitmap_line::y#7 y zp ZP_WORD:5 202.0
(word) bitmap_line::y1
(word) bitmap_line::y1#0 y1 zp ZP_WORD:5 7.333333333333333
(word) bitmap_line::y1#1 y1 zp ZP_WORD:5 50.5
(word) bitmap_line::y2
(word) bitmap_line::y2#0 y2 zp ZP_WORD:10 22.0
(word) bitmap_line::y2#11 y2 zp ZP_WORD:10 6.78125
(word~) bitmap_line::y2#13 y2 zp ZP_WORD:10 202.0
(void()) bitmap_plot((word) bitmap_plot::x , (byte) bitmap_plot::y)
(word~) bitmap_plot::$1 $1 zp ZP_WORD:42 4.0
(byte~) bitmap_plot::$2 reg byte a 4.0
(label) bitmap_plot::@return
(byte*) bitmap_plot::plotter
(word) bitmap_plot::plotter#0 plotter zp ZP_WORD:40 1.0
(byte*) bitmap_plot::plotter#1 plotter zp ZP_WORD:40 3.0
(word) bitmap_plot::x
(word) bitmap_plot::x#0 x zp ZP_WORD:3 4.0
(word) bitmap_plot::x#1 x zp ZP_WORD:3 202.0
(word) bitmap_plot::x#2 x zp ZP_WORD:3 4.0
(word) bitmap_plot::x#3 x zp ZP_WORD:3 202.0
(word) bitmap_plot::x#4 x zp ZP_WORD:3 52.5
(byte) bitmap_plot::y
(byte) bitmap_plot::y#0 reg byte x 2.0
(byte) bitmap_plot::y#1 reg byte x 101.0
(byte) bitmap_plot::y#2 reg byte x 2.0
(byte) bitmap_plot::y#3 reg byte x 101.0
(byte) bitmap_plot::y#4 reg byte x 210.0
(byte[$100]) bitmap_plot_bit
(const byte[$100]) bitmap_plot_bit#0 bitmap_plot_bit = { fill( $100, 0) }
(void()) bitmap_plot_spline_8seg()
(byte~) bitmap_plot_spline_8seg::$8 reg byte x 50.5
(byte~) bitmap_plot_spline_8seg::$9 reg byte x 151.5
(label) bitmap_plot_spline_8seg::@1
(label) bitmap_plot_spline_8seg::@2
(label) bitmap_plot_spline_8seg::@return
(signed word) bitmap_plot_spline_8seg::current_x
(signed word) bitmap_plot_spline_8seg::current_x#0 current_x zp ZP_WORD:3 2.0
(signed word) bitmap_plot_spline_8seg::current_x#1 current_x zp ZP_WORD:3 50.5
(signed word) bitmap_plot_spline_8seg::current_x#2 current_x zp ZP_WORD:3 103.0
(signed word) bitmap_plot_spline_8seg::current_y
(signed word) bitmap_plot_spline_8seg::current_y#0 current_y zp ZP_WORD:5 4.0
(signed word) bitmap_plot_spline_8seg::current_y#1 current_y zp ZP_WORD:5 67.33333333333333
(signed word) bitmap_plot_spline_8seg::current_y#2 current_y zp ZP_WORD:5 51.5
(byte) bitmap_plot_spline_8seg::n
(byte) bitmap_plot_spline_8seg::n#1 n zp ZP_BYTE:7 151.5
(byte) bitmap_plot_spline_8seg::n#2 n zp ZP_BYTE:7 40.4
(byte[$100]) bitmap_plot_yhi
(const byte[$100]) bitmap_plot_yhi#0 bitmap_plot_yhi = { fill( $100, 0) }
(byte[$100]) bitmap_plot_ylo
(const byte[$100]) bitmap_plot_ylo#0 bitmap_plot_ylo = { fill( $100, 0) }
(byte*) bitmap_screen
(struct Segment[$15]) letter_c
(const struct Segment[$15]) letter_c#0 letter_c = { fill( $15, 0) }
(void()) main()
(byte) main::$206 reg byte a 22.0
(byte~) main::$44 reg byte y 13.2
(label) main::@1
(label) main::@10
(label) main::@2
(label) main::@3
(label) main::@4
(label) main::@5
(label) main::@6
(label) main::@7
(label) main::@8
(label) main::@9
(signed word) main::current_x
(signed word) main::current_x#4 current_x zp ZP_WORD:3 2.2
(signed word) main::current_x#8 current_x#8 zp ZP_WORD:32 1.5
(signed word~) main::current_x#9 current_x zp ZP_WORD:3 11.0
(signed word) main::current_y
(signed word) main::current_y#4 current_y zp ZP_WORD:5 1.8333333333333333
(signed word) main::current_y#8 current_y#8 zp ZP_WORD:34 1.5
(signed word~) main::current_y#9 current_y zp ZP_WORD:5 22.0
(byte) main::i
(byte) main::i#1 i zp ZP_BYTE:2 8.25
(byte) main::i#10 i zp ZP_BYTE:2 1.8333333333333333
(signed word) main::segment_to_x
(signed word) main::segment_to_y
(byte) main::segment_type
(byte) main::segment_type#0 reg byte x 5.5
(signed word) main::segment_via_x
(signed word) main::segment_via_x#0 segment_via_x zp ZP_WORD:22 3.6666666666666665
(signed word) main::segment_via_y
(signed word) main::segment_via_y#0 segment_via_y zp ZP_WORD:24 3.6666666666666665
(label) main::toD0181
(word~) main::toD0181_$0
(number~) main::toD0181_$1
(number~) main::toD0181_$2
(number~) main::toD0181_$3
(word~) main::toD0181_$4
(byte~) main::toD0181_$5
(number~) main::toD0181_$6
(number~) main::toD0181_$7
(number~) main::toD0181_$8
(byte*) main::toD0181_gfx
(byte) main::toD0181_return
(const byte) main::toD0181_return#0 toD0181_return = >(word)(const byte*) BITMAP_SCREEN#0&(word) $3fff*(byte) 4|>(word)(const byte*) BITMAP_GRAPHICS#0/(byte) 4&(byte) $f
(byte*) main::toD0181_screen
(label) main::vicSelectGfxBank1
(byte~) main::vicSelectGfxBank1_$0
(label) main::vicSelectGfxBank1_@1
(byte*) main::vicSelectGfxBank1_gfx
(label) main::vicSelectGfxBank1_toDd001
(word~) main::vicSelectGfxBank1_toDd001_$0
(byte~) main::vicSelectGfxBank1_toDd001_$1
(number~) main::vicSelectGfxBank1_toDd001_$2
(number~) main::vicSelectGfxBank1_toDd001_$3
(byte*) main::vicSelectGfxBank1_toDd001_gfx
(byte) main::vicSelectGfxBank1_toDd001_return
(const byte) main::vicSelectGfxBank1_toDd001_return#0 vicSelectGfxBank1_toDd001_return = (byte) 3^>(word)(const byte*) BITMAP_SCREEN#0/(byte) $40
(void*()) memset((void*) memset::str , (byte) memset::c , (word) memset::num)
(label) memset::@1
(label) memset::@2
(label) memset::@return
(byte) memset::c
(byte) memset::c#3 reg byte x 1.375
(byte*) memset::dst
(byte*) memset::dst#1 dst zp ZP_WORD:28 16.5
(byte*) memset::dst#2 dst zp ZP_WORD:28 17.5
(byte*~) memset::dst#3 dst zp ZP_WORD:28 4.0
(byte*) memset::end
(byte*) memset::end#0 end zp ZP_WORD:26 2.1666666666666665
(word) memset::num
(word) memset::num#2 num zp ZP_WORD:26 2.0
(void*) memset::return
(void*) memset::str
(void*) memset::str#3 str zp ZP_WORD:28
(word()) sgn_u16((word) sgn_u16::w)
(byte~) sgn_u16::$0 reg byte a 4.0
(byte~) sgn_u16::$1 reg byte a 4.0
(label) sgn_u16::@1
(label) sgn_u16::@return
(word) sgn_u16::return
(word) sgn_u16::return#0 return zp ZP_WORD:18 4.0
(word) sgn_u16::return#1 return zp ZP_WORD:18 4.0
(word) sgn_u16::return#4 return zp ZP_WORD:18 1.0
(word) sgn_u16::w
(word) sgn_u16::w#0 w zp ZP_WORD:16 4.0
(word) sgn_u16::w#1 w zp ZP_WORD:16 4.0
(word) sgn_u16::w#2 w zp ZP_WORD:16 6.0
(void()) spline_8segB((signed word) spline_8segB::p0_x , (signed word) spline_8segB::p0_y , (signed word) spline_8segB::p1_x , (signed word) spline_8segB::p1_y , (signed word) spline_8segB::p2_x , (signed word) spline_8segB::p2_y)
(signed word~) spline_8segB::$0 $0 zp ZP_WORD:44 4.0
(signed word~) spline_8segB::$1 $1 zp ZP_WORD:44 4.0
(signed word~) spline_8segB::$10 $10 zp ZP_WORD:22 4.0
(signed word~) spline_8segB::$12 $12 zp ZP_WORD:24 4.0
(signed word~) spline_8segB::$18 $18 zp ZP_WORD:3 4.0
(signed word~) spline_8segB::$19 $19 zp ZP_WORD:3 1.3333333333333333
(signed word~) spline_8segB::$20 $20 zp ZP_WORD:5 4.0
(signed word~) spline_8segB::$21 $21 zp ZP_WORD:5 2.0
(signed word~) spline_8segB::$22 $22 zp ZP_WORD:48 202.0
(signed word~) spline_8segB::$23 $23 zp ZP_WORD:48 50.5
(signed word~) spline_8segB::$24 $24 zp ZP_WORD:50 202.0
(signed word~) spline_8segB::$25 $25 zp ZP_WORD:50 67.33333333333333
(signed word~) spline_8segB::$3 $3 zp ZP_WORD:46 4.0
(byte~) spline_8segB::$31 reg byte x 151.5
(signed word~) spline_8segB::$4 $4 zp ZP_WORD:46 4.0
(signed word~) spline_8segB::$6 $6 zp ZP_WORD:22 4.0
(signed word~) spline_8segB::$8 $8 zp ZP_WORD:24 4.0
(label) spline_8segB::@1
(label) spline_8segB::@2
(label) spline_8segB::@return
(signed word) spline_8segB::a_x
(signed word) spline_8segB::a_x#0 a_x zp ZP_WORD:44 0.5
(signed word) spline_8segB::a_y
(signed word) spline_8segB::a_y#0 a_y zp ZP_WORD:46 0.6000000000000001
(signed word) spline_8segB::b_x
(signed word) spline_8segB::b_x#0 b_x zp ZP_WORD:22 1.3333333333333333
(signed word) spline_8segB::b_y
(signed word) spline_8segB::b_y#0 b_y zp ZP_WORD:24 1.3333333333333333
(signed word) spline_8segB::i_x
(signed word) spline_8segB::i_x#0 i_x zp ZP_WORD:22 0.5714285714285714
(signed word) spline_8segB::i_x#1 i_x zp ZP_WORD:22 50.5
(signed word) spline_8segB::i_x#2 i_x zp ZP_WORD:22 30.5
(signed word) spline_8segB::i_y
(signed word) spline_8segB::i_y#0 i_y zp ZP_WORD:24 0.8
(signed word) spline_8segB::i_y#1 i_y zp ZP_WORD:24 67.33333333333333
(signed word) spline_8segB::i_y#2 i_y zp ZP_WORD:24 27.727272727272727
(signed word) spline_8segB::j_x
(signed word) spline_8segB::j_x#0 j_x zp ZP_WORD:44 5.722222222222221
(signed word) spline_8segB::j_y
(signed word) spline_8segB::j_y#0 j_y zp ZP_WORD:46 6.0588235294117645
(byte) spline_8segB::n
(byte) spline_8segB::n#1 reg byte y 151.5
(byte) spline_8segB::n#2 reg byte y 25.25
(struct SplineVector16) spline_8segB::p0
(signed word) spline_8segB::p0_x
(signed word) spline_8segB::p0_x#0 p0_x zp ZP_WORD:3 0.7727272727272728
(signed word) spline_8segB::p0_y
(signed word) spline_8segB::p0_y#0 p0_y zp ZP_WORD:5 0.7727272727272728
(struct SplineVector16) spline_8segB::p1
(signed word) spline_8segB::p1_x
(signed word) spline_8segB::p1_x#0 p1_x zp ZP_WORD:22 1.5
(signed word) spline_8segB::p1_y
(signed word) spline_8segB::p1_y#0 p1_y zp ZP_WORD:24 1.3636363636363638
(struct SplineVector16) spline_8segB::p2
(signed word) spline_8segB::p2_x
(signed word) spline_8segB::p2_x#0 p2_x zp ZP_WORD:32 4.333333333333333
(signed word) spline_8segB::p2_y
(signed word) spline_8segB::p2_y#0 p2_y zp ZP_WORD:34 2.6
(signed word) spline_8segB::p_x
(signed word) spline_8segB::p_x#0 p_x zp ZP_WORD:3 2.0
(signed word) spline_8segB::p_x#1 p_x zp ZP_WORD:3 34.0
(signed word) spline_8segB::p_x#2 p_x zp ZP_WORD:3 38.125
(signed word) spline_8segB::p_y
(signed word) spline_8segB::p_y#0 p_y zp ZP_WORD:5 4.0
(signed word) spline_8segB::p_y#1 p_y zp ZP_WORD:5 29.142857142857142
(signed word) spline_8segB::p_y#2 p_y zp ZP_WORD:5 33.888888888888886

zp ZP_BYTE:2 [ main::i#10 main::i#1 ]
zp ZP_WORD:3 [ main::current_x#4 main::current_x#9 bitmap_line::x#7 bitmap_line::x#6 bitmap_line::x#15 bitmap_line::x#13 bitmap_line::x#0 bitmap_line::x1#1 bitmap_line::x1#0 bitmap_line::x#12 bitmap_line::x#1 bitmap_plot::x#4 bitmap_plot::x#3 bitmap_plot::x#2 bitmap_plot::x#0 bitmap_plot::x#1 spline_8segB::p0_x#0 bitmap_plot_spline_8seg::current_x#2 bitmap_plot_spline_8seg::current_x#0 bitmap_plot_spline_8seg::current_x#1 spline_8segB::p_x#2 spline_8segB::p_x#0 spline_8segB::p_x#1 spline_8segB::$18 spline_8segB::$19 ]
zp ZP_WORD:5 [ main::current_y#4 main::current_y#9 bitmap_line::y#15 bitmap_line::y#7 bitmap_line::y#13 bitmap_line::y#4 bitmap_line::y#0 bitmap_line::y1#1 bitmap_line::y1#0 bitmap_line::y#1 bitmap_line::y#2 spline_8segB::p0_y#0 bitmap_plot_spline_8seg::current_y#2 bitmap_plot_spline_8seg::current_y#0 bitmap_plot_spline_8seg::current_y#1 spline_8segB::p_y#2 spline_8segB::p_y#0 spline_8segB::p_y#1 spline_8segB::$20 spline_8segB::$21 ]
zp ZP_BYTE:7 [ bitmap_plot_spline_8seg::n#2 bitmap_plot_spline_8seg::n#1 ]
zp ZP_WORD:8 [ bitmap_line::x2#10 bitmap_line::x2#13 bitmap_line::x2#0 ]
zp ZP_WORD:10 [ bitmap_line::y2#11 bitmap_line::y2#13 bitmap_line::y2#0 ]
zp ZP_WORD:12 [ bitmap_line::e#3 bitmap_line::e#0 bitmap_line::e#6 bitmap_line::e#1 bitmap_line::e#2 ]
zp ZP_WORD:14 [ bitmap_line::e1#3 bitmap_line::e1#6 bitmap_line::e1#0 bitmap_line::e1#2 bitmap_line::e1#1 ]
reg byte x [ bitmap_plot::y#4 bitmap_plot::y#3 bitmap_plot::y#2 bitmap_plot::y#0 bitmap_plot::y#1 ]
zp ZP_WORD:16 [ sgn_u16::w#2 sgn_u16::w#0 sgn_u16::w#1 ]
zp ZP_WORD:18 [ sgn_u16::return#4 sgn_u16::return#0 sgn_u16::return#1 bitmap_line::sy#0 ]
zp ZP_WORD:20 [ abs_u16::return#4 abs_u16::return#2 abs_u16::w#2 abs_u16::w#0 abs_u16::w#1 abs_u16::return#0 abs_u16::return#1 bitmap_line::dy#0 ]
reg byte y [ spline_8segB::n#2 spline_8segB::n#1 ]
zp ZP_WORD:22 [ spline_8segB::i_x#2 spline_8segB::i_x#0 spline_8segB::i_x#1 spline_8segB::$10 spline_8segB::$6 spline_8segB::b_x#0 main::segment_via_x#0 spline_8segB::p1_x#0 ]
zp ZP_WORD:24 [ spline_8segB::i_y#2 spline_8segB::i_y#0 spline_8segB::i_y#1 spline_8segB::$12 spline_8segB::$8 spline_8segB::b_y#0 main::segment_via_y#0 spline_8segB::p1_y#0 ]
zp ZP_WORD:26 [ memset::num#2 memset::end#0 ]
zp ZP_WORD:28 [ memset::str#3 memset::dst#2 memset::dst#3 memset::dst#1 ]
reg byte x [ memset::c#3 ]
reg byte a [ bitmap_init::bits#3 bitmap_init::bits#4 bitmap_init::bits#1 ]
reg byte x [ bitmap_init::x#2 bitmap_init::x#1 ]
reg byte x [ bitmap_init::y#2 bitmap_init::y#1 ]
zp ZP_WORD:30 [ bitmap_init::yoffs#2 bitmap_init::yoffs#4 bitmap_init::yoffs#1 ]
reg byte a [ main::$206 ]
reg byte y [ main::$44 ]
reg byte x [ main::segment_type#0 ]
zp ZP_WORD:32 [ main::current_x#8 spline_8segB::p2_x#0 ]
zp ZP_WORD:34 [ main::current_y#8 spline_8segB::p2_y#0 ]
reg byte x [ bitmap_plot_spline_8seg::$8 ]
reg byte x [ bitmap_plot_spline_8seg::$9 ]
zp ZP_WORD:36 [ bitmap_line::dx#0 ]
zp ZP_WORD:38 [ bitmap_line::sx#0 ]
zp ZP_WORD:40 [ bitmap_plot::plotter#0 bitmap_plot::plotter#1 ]
zp ZP_WORD:42 [ bitmap_plot::$1 ]
reg byte a [ bitmap_plot::$2 ]
reg byte a [ sgn_u16::$0 ]
reg byte a [ sgn_u16::$1 ]
reg byte a [ abs_u16::$0 ]
reg byte a [ abs_u16::$1 ]
zp ZP_WORD:44 [ spline_8segB::$0 spline_8segB::$1 spline_8segB::a_x#0 spline_8segB::j_x#0 ]
zp ZP_WORD:46 [ spline_8segB::$3 spline_8segB::$4 spline_8segB::a_y#0 spline_8segB::j_y#0 ]
zp ZP_WORD:48 [ spline_8segB::$22 spline_8segB::$23 ]
zp ZP_WORD:50 [ spline_8segB::$24 spline_8segB::$25 ]
reg byte x [ spline_8segB::$31 ]
zp ZP_BYTE:52 [ bitmap_init::$7 ]
reg byte a [ bitmap_init::$4 ]
reg byte a [ bitmap_init::$5 ]
reg byte a [ bitmap_init::$6 ]
