const nomodify byte BLACK = 0
const nomodify byte BLUE = 6
const nomodify byte* CHARSET = (byte*) 8192
const nomodify byte* COLS = (byte*) 55296
const nomodify byte* D018 = (byte*) 53272
const byte OFFSET_STRUCT_MOS6569_VICII_BG_COLOR = $21
const byte OFFSET_STRUCT_MOS6569_VICII_BORDER_COLOR = $20
const byte OFFSET_STRUCT_MOS6581_SID_CH3_CONTROL = $12
const byte OFFSET_STRUCT_MOS6581_SID_CH3_FREQ = $e
const byte OFFSET_STRUCT_MOS6581_SID_CH3_OSC = $1b
const byte RADIX::BINARY = 2
const byte RADIX::DECIMAL = $a
const byte RADIX::HEXADECIMAL = $10
const byte RADIX::OCTAL = 8
const nomodify byte* SCREEN1 = (byte*) 10240
const nomodify struct MOS6581_SID* SID = (struct MOS6581_SID*) 54272
const nomodify byte SID_CONTROL_NOISE = $80
const to_nomodify byte* SINTABLE[$100]  = kickasm {{ .for(var i=0;i<$100;i++)
        .byte round(127.5+127.5*sin(toRadians(360*i/256)))
 }}
const nomodify struct MOS6569_VICII* VICII = (struct MOS6569_VICII*) 53248
byte c1A
byte c1A#1 c1A zp[1]:7 16.384615384615383
byte c1A#2 c1A zp[1]:7 1.6231884057971016
byte c1B
byte c1B#1 c1B zp[1]:14 15.214285714285715
byte c1B#2 c1B zp[1]:14 1.647058823529412
byte c2A
byte c2A#1 c2A zp[1]:17 8.875
byte c2A#2 c2A zp[1]:17 1.9310344827586208
byte c2B
byte c2B#1 c2B zp[1]:2 8.52
byte c2B#2 c2B zp[1]:2 1.9649122807017543
void doplasma(byte* doplasma::screen)
byte~ doplasma::$2 reg byte a 20002.0
byte~ doplasma::$4 reg byte a 20002.0
byte doplasma::c1a
byte doplasma::c1a#0 c1a zp[1]:9 101.0
byte doplasma::c1a#1 c1a zp[1]:9 5000.5
byte doplasma::c1a#2 c1a zp[1]:9 6020.8
byte doplasma::c1b
byte doplasma::c1b#0 c1b zp[1]:10 202.0
byte doplasma::c1b#1 c1b zp[1]:10 6667.333333333333
byte doplasma::c1b#2 c1b zp[1]:10 5017.333333333333
byte doplasma::c2a
byte doplasma::c2a#0 c2a zp[1]:12 101.0
byte doplasma::c2a#1 c2a zp[1]:12 6667.333333333333
byte doplasma::c2a#2 c2a zp[1]:12 7526.0
byte doplasma::c2b
byte doplasma::c2b#0 c2b zp[1]:13 202.0
byte doplasma::c2b#1 c2b zp[1]:13 10001.0
byte doplasma::c2b#2 c2b zp[1]:13 6020.8
byte doplasma::i
byte doplasma::i#1 i zp[1]:8 10001.0
byte doplasma::i#2 i zp[1]:8 5714.857142857143
byte doplasma::i1
byte doplasma::i1#1 i1 zp[1]:11 20002.0
byte doplasma::i1#2 i1 zp[1]:11 6667.333333333333
byte doplasma::i2
byte doplasma::i2#1 reg byte x 20002.0
byte doplasma::i2#2 reg byte x 5472.245283018866
byte doplasma::ii
byte* doplasma::screen
byte doplasma::val
byte doplasma::val#0 reg byte a 20002.0
byte doplasma::val#1 reg byte a 15001.5
byte doplasma::val#10 reg byte a 15001.5
byte doplasma::val#11 reg byte a 15001.5
byte doplasma::val#13 reg byte a 15001.5
byte doplasma::val#15 reg byte a 15001.5
byte doplasma::val#17 reg byte a 15001.5
byte doplasma::val#19 reg byte a 15001.5
byte doplasma::val#21 reg byte a 15001.5
byte doplasma::val#23 reg byte a 15001.5
byte doplasma::val#25 reg byte a 15001.5
byte doplasma::val#27 reg byte a 15001.5
byte doplasma::val#29 reg byte a 15001.5
byte doplasma::val#31 reg byte a 15001.5
byte doplasma::val#33 reg byte a 15001.5
byte doplasma::val#35 reg byte a 15001.5
byte doplasma::val#37 reg byte a 15001.5
byte doplasma::val#39 reg byte a 15001.5
byte doplasma::val#41 reg byte a 15001.5
byte doplasma::val#43 reg byte a 15001.5
byte doplasma::val#45 reg byte a 15001.5
byte doplasma::val#47 reg byte a 15001.5
byte doplasma::val#49 reg byte a 15001.5
byte doplasma::val#5 reg byte a 15001.5
byte doplasma::val#51 reg byte a 20002.0
byte doplasma::val#7 reg byte a 15001.5
const byte* doplasma::xbuf[$28]  = { fill( $28, 0) }
const byte* doplasma::ybuf[$19]  = { fill( $19, 0) }
byte doplasma::yprev
byte doplasma::yprev#2 reg byte x 6667.333333333333
byte doplasma::yprev#4 reg byte x 20002.0
byte doplasma::yval
byte doplasma::yval#0 yval zp[1]:18 5000.5
void main()
byte* main::col
byte* main::col#1 col zp[2]:5 16.5
byte* main::col#2 col zp[2]:5 16.5
byte* main::toD0181_gfx
byte main::toD0181_return
const byte main::toD0181_return#0 toD0181_return = >(word)SCREEN1&$3fff*4|>(word)CHARSET/4&$f
byte* main::toD0181_screen
void makecharset(byte* makecharset::charset)
word~ makecharset::$10 zp[2]:15 2002.0
word~ makecharset::$11 zp[2]:15 2002.0
byte~ makecharset::$12 reg byte a 202.0
byte*~ makecharset::$16 zp[2]:15 2002.0
byte~ makecharset::$3 reg byte x 202.0
byte~ makecharset::$7 zp[1]:17 20002.0
byte makecharset::b
byte makecharset::b#1 reg byte y 20002.0
byte makecharset::b#2 reg byte y 3875.5
byte makecharset::b#6 reg byte y 15001.5
const to_nomodify byte* makecharset::bittab[8]  = { 1, 2, 4, 8, $10, $20, $40, $80 }
word makecharset::c
word makecharset::c#1 c zp[2]:3 202.0
word makecharset::c#2 c zp[2]:3 62.75
byte* makecharset::charset
byte makecharset::i
byte makecharset::i#1 i zp[1]:7 2002.0
byte makecharset::i#2 i zp[1]:7 286.0
byte makecharset::ii
byte makecharset::ii#1 reg byte x 20002.0
byte makecharset::ii#2 reg byte x 5714.857142857143
byte makecharset::s
byte makecharset::s#0 s zp[1]:14 631.375
byte makecharset::sid_rnd1_return
byte makecharset::sid_rnd1_return#0 reg byte a 20002.0
void* memset(void* memset::str , byte memset::c , word memset::num)
byte memset::c
const byte memset::c#0 c = ' '
byte* memset::dst
byte* memset::dst#1 dst zp[2]:15 20002.0
byte* memset::dst#2 dst zp[2]:15 13334.666666666666
byte* memset::end
const byte* memset::end#0 end = (byte*)memset::str#0+memset::num#0
word memset::num
const word memset::num#0 num = $3e8
void* memset::return
void* memset::str
const void* memset::str#0 str = (void*)print_screen#0
void print_char(byte print_char::ch)
byte print_char::ch
const byte print_char::ch#0 ch = '.'
byte* print_char_cursor
byte* print_char_cursor#0 print_char_cursor zp[2]:5 367.33333333333337
byte* print_char_cursor#19 print_char_cursor zp[2]:5 95.82608695652173
byte* print_char_cursor#32 print_char_cursor zp[2]:5 151.5
void print_cls()
byte* print_line_cursor
byte* print_screen
const byte* print_screen#0 print_screen = (byte*) 1024

zp[1]:2 [ c2B#1 c2B#2 ]
zp[2]:3 [ makecharset::c#2 makecharset::c#1 ]
zp[2]:5 [ print_char_cursor#19 print_char_cursor#32 print_char_cursor#0 main::col#2 main::col#1 ]
zp[1]:7 [ makecharset::i#2 makecharset::i#1 c1A#1 c1A#2 ]
reg byte x [ makecharset::ii#2 makecharset::ii#1 ]
reg byte y [ makecharset::b#2 makecharset::b#6 makecharset::b#1 ]
zp[1]:8 [ doplasma::i#2 doplasma::i#1 ]
zp[1]:9 [ doplasma::c1a#2 doplasma::c1a#0 doplasma::c1a#1 ]
zp[1]:10 [ doplasma::c1b#2 doplasma::c1b#0 doplasma::c1b#1 ]
reg byte x [ doplasma::yprev#2 doplasma::yprev#4 ]
zp[1]:11 [ doplasma::i1#2 doplasma::i1#1 ]
zp[1]:12 [ doplasma::c2a#2 doplasma::c2a#0 doplasma::c2a#1 ]
zp[1]:13 [ doplasma::c2b#2 doplasma::c2b#0 doplasma::c2b#1 ]
reg byte x [ doplasma::i2#2 doplasma::i2#1 ]
reg byte x [ makecharset::$3 ]
zp[1]:14 [ makecharset::s#0 c1B#1 c1B#2 ]
reg byte a [ makecharset::$12 ]
zp[2]:15 [ makecharset::$10 makecharset::$11 makecharset::$16 memset::dst#2 memset::dst#1 ]
reg byte a [ makecharset::sid_rnd1_return#0 ]
zp[1]:17 [ makecharset::$7 c2A#1 c2A#2 ]
reg byte a [ doplasma::val#0 ]
reg byte a [ doplasma::val#1 ]
reg byte a [ doplasma::val#5 ]
reg byte a [ doplasma::val#7 ]
reg byte a [ doplasma::val#10 ]
reg byte a [ doplasma::val#11 ]
reg byte a [ doplasma::val#13 ]
reg byte a [ doplasma::val#15 ]
reg byte a [ doplasma::val#17 ]
reg byte a [ doplasma::val#19 ]
reg byte a [ doplasma::val#21 ]
reg byte a [ doplasma::val#23 ]
reg byte a [ doplasma::val#25 ]
reg byte a [ doplasma::val#27 ]
reg byte a [ doplasma::val#29 ]
reg byte a [ doplasma::val#31 ]
reg byte a [ doplasma::val#33 ]
reg byte a [ doplasma::val#35 ]
reg byte a [ doplasma::val#37 ]
reg byte a [ doplasma::val#39 ]
reg byte a [ doplasma::val#41 ]
reg byte a [ doplasma::val#43 ]
reg byte a [ doplasma::val#45 ]
reg byte a [ doplasma::val#47 ]
reg byte a [ doplasma::val#49 ]
reg byte a [ doplasma::val#51 ]
reg byte a [ doplasma::$4 ]
zp[1]:18 [ doplasma::yval#0 ]
reg byte a [ doplasma::$2 ]
